('C:\\Users\\Alok Jain\\Desktop\\minor final stuff\\build\\remote_access\\out00-PKG.pkg',
 {'BINARY': 1,
  'DATA': 1,
  'EXECUTABLE': 1,
  'EXTENSION': 1,
  'PYMODULE': 1,
  'PYSOURCE': 1,
  'PYZ': 0},
 [('out00-PYZ.pyz',
   'C:\\Users\\Alok Jain\\Desktop\\minor final stuff\\build\\remote_access\\out00-PYZ.pyz',
   'PYZ'),
  ('struct', 'C:\\Python27\\Lib\\struct.pyc', 'PYMODULE'),
  ('pyimod01_os_path',
   'C:\\Python27\\lib\\site-packages\\PyInstaller\\loader\\pyimod01_os_path.pyc',
   'PYMODULE'),
  ('pyimod02_archive',
   'C:\\Python27\\lib\\site-packages\\PyInstaller\\loader\\pyimod02_archive.pyc',
   'PYMODULE'),
  ('pyimod03_importers',
   'C:\\Python27\\lib\\site-packages\\PyInstaller\\loader\\pyimod03_importers.pyc',
   'PYMODULE'),
  ('pyiboot01_bootstrap',
   'C:\\Python27\\lib\\site-packages\\PyInstaller\\loader\\pyiboot01_bootstrap.py',
   'PYSOURCE'),
  ('pyi_rth_win32comgenpy',
   'C:\\Python27\\lib\\site-packages\\PyInstaller\\loader\\rthooks\\pyi_rth_win32comgenpy.py',
   'PYSOURCE'),
  ('remote_access',
   'C:\\Users\\Alok Jain\\Desktop\\minor final stuff\\remote_access.py',
   'PYSOURCE'),
  (u'Microsoft.VC90.CRT.manifest',
   u'C:\\WINDOWS\\WinSxS\\Manifests\\x86_microsoft.vc90.crt_1fc8b3b9a1e18e3b_9.0.30729.9177_none_5093cc7abcb795e9.manifest',
   'BINARY'),
  (u'msvcr90.dll',
   u'C:\\WINDOWS\\WinSxS\\x86_microsoft.vc90.crt_1fc8b3b9a1e18e3b_9.0.30729.9177_none_5093cc7abcb795e9\\msvcr90.dll',
   'BINARY'),
  (u'msvcp90.dll',
   u'C:\\WINDOWS\\WinSxS\\x86_microsoft.vc90.crt_1fc8b3b9a1e18e3b_9.0.30729.9177_none_5093cc7abcb795e9\\msvcp90.dll',
   'BINARY'),
  (u'msvcm90.dll',
   u'C:\\WINDOWS\\WinSxS\\x86_microsoft.vc90.crt_1fc8b3b9a1e18e3b_9.0.30729.9177_none_5093cc7abcb795e9\\msvcm90.dll',
   'BINARY'),
  ('python27.dll', 'C:\\WINDOWS\\system32\\python27.dll', 'BINARY'),
  ('pywintypes27.dll', 'C:\\WINDOWS\\SYSTEM32\\pywintypes27.dll', 'BINARY'),
  ('pythoncom27.dll', 'C:\\WINDOWS\\SYSTEM32\\pythoncom27.dll', 'BINARY'),
  ('win32trace',
   'C:\\Python27\\lib\\site-packages\\win32\\win32trace.pyd',
   'EXTENSION'),
  ('_hashlib', 'C:\\Python27\\DLLs\\_hashlib.pyd', 'EXTENSION'),
  ('win32ui',
   'C:\\Python27\\lib\\site-packages\\Pythonwin\\win32ui.pyd',
   'EXTENSION'),
  ('_win32sysloader',
   'C:\\Python27\\lib\\site-packages\\win32\\_win32sysloader.pyd',
   'EXTENSION'),
  ('win32api',
   'C:\\Python27\\lib\\site-packages\\win32\\win32api.pyd',
   'EXTENSION'),
  ('bz2', 'C:\\Python27\\DLLs\\bz2.pyd', 'EXTENSION'),
  ('unicodedata', 'C:\\Python27\\DLLs\\unicodedata.pyd', 'EXTENSION'),
  ('win32gui',
   'C:\\Python27\\lib\\site-packages\\win32\\win32gui.pyd',
   'EXTENSION'),
  ('win32console',
   'C:\\Python27\\lib\\site-packages\\win32\\win32console.pyd',
   'EXTENSION'),
  ('_ssl', 'C:\\Python27\\DLLs\\_ssl.pyd', 'EXTENSION'),
  ('_socket', 'C:\\Python27\\DLLs\\_socket.pyd', 'EXTENSION'),
  ('_sqlite3', 'C:\\Python27\\DLLs\\_sqlite3.pyd', 'EXTENSION'),
  ('pyexpat', 'C:\\Python27\\DLLs\\pyexpat.pyd', 'EXTENSION'),
  ('psutil._psutil_windows',
   'C:\\Python27\\lib\\site-packages\\psutil\\_psutil_windows.pyd',
   'EXTENSION'),
  ('select', 'C:\\Python27\\DLLs\\select.pyd', 'EXTENSION'),
  (u'Microsoft.VC90.MFC.manifest',
   u'C:\\WINDOWS\\WinSxS\\Manifests\\x86_microsoft.vc90.mfc_1fc8b3b9a1e18e3b_9.0.30729.6161_none_4bf7e3e2bf9ada4c.manifest',
   'BINARY'),
  (u'mfc90.dll',
   u'C:\\WINDOWS\\WinSxS\\x86_microsoft.vc90.mfc_1fc8b3b9a1e18e3b_9.0.30729.6161_none_4bf7e3e2bf9ada4c\\mfc90.dll',
   'BINARY'),
  (u'mfc90u.dll',
   u'C:\\WINDOWS\\WinSxS\\x86_microsoft.vc90.mfc_1fc8b3b9a1e18e3b_9.0.30729.6161_none_4bf7e3e2bf9ada4c\\mfc90u.dll',
   'BINARY'),
  (u'mfcm90.dll',
   u'C:\\WINDOWS\\WinSxS\\x86_microsoft.vc90.mfc_1fc8b3b9a1e18e3b_9.0.30729.6161_none_4bf7e3e2bf9ada4c\\mfcm90.dll',
   'BINARY'),
  (u'mfcm90u.dll',
   u'C:\\WINDOWS\\WinSxS\\x86_microsoft.vc90.mfc_1fc8b3b9a1e18e3b_9.0.30729.6161_none_4bf7e3e2bf9ada4c\\mfcm90u.dll',
   'BINARY'),
  ('sqlite3.dll', 'C:\\Python27\\DLLs\\sqlite3.dll', 'BINARY'),
  ('Include\\pyconfig.h', 'C:\\Python27\\Include\\pyconfig.h', 'DATA'),
  ('remote_access.exe.manifest',
   'C:\\Users\\Alok Jain\\Desktop\\minor final stuff\\build\\remote_access\\remote_access.exe.manifest',
   'BINARY'),
  ('pyi-windows-manifest-filename remote_access.exe.manifest', '', 'OPTION')],
 False,
 False,
 False)
