('C:\\Users\\Alok Jain\\Desktop\\main files\\keyloggerpythonfiles\\build\\email\\out00-PKG.pkg',
 {'BINARY': 1,
  'DATA': 1,
  'EXECUTABLE': 1,
  'EXTENSION': 1,
  'PYMODULE': 1,
  'PYSOURCE': 1,
  'PYZ': 0},
 [('out00-PYZ.pyz',
   'C:\\Users\\Alok Jain\\Desktop\\main files\\keyloggerpythonfiles\\build\\email\\out00-PYZ.pyz',
   'PYZ'),
  ('struct', 'C:\\Python27\\Lib\\struct.pyc', 'PYMODULE'),
  ('pyimod01_os_path',
   'C:\\Python27\\lib\\site-packages\\PyInstaller\\loader\\pyimod01_os_path.pyc',
   'PYMODULE'),
  ('pyimod02_archive',
   'C:\\Python27\\lib\\site-packages\\PyInstaller\\loader\\pyimod02_archive.pyc',
   'PYMODULE'),
  ('pyimod03_importers',
   'C:\\Python27\\lib\\site-packages\\PyInstaller\\loader\\pyimod03_importers.pyc',
   'PYMODULE'),
  ('pyiboot01_bootstrap',
   'C:\\Python27\\lib\\site-packages\\PyInstaller\\loader\\pyiboot01_bootstrap.py',
   'PYSOURCE'),
  ('email',
   'C:\\Users\\Alok Jain\\Desktop\\main files\\keyloggerpythonfiles\\email.py',
   'PYSOURCE'),
  (u'Microsoft.VC90.CRT.manifest',
   u'C:\\WINDOWS\\WinSxS\\Manifests\\x86_microsoft.vc90.crt_1fc8b3b9a1e18e3b_9.0.30729.9177_none_5093cc7abcb795e9.manifest',
   'BINARY'),
  (u'msvcr90.dll',
   u'C:\\WINDOWS\\WinSxS\\x86_microsoft.vc90.crt_1fc8b3b9a1e18e3b_9.0.30729.9177_none_5093cc7abcb795e9\\msvcr90.dll',
   'BINARY'),
  (u'msvcp90.dll',
   u'C:\\WINDOWS\\WinSxS\\x86_microsoft.vc90.crt_1fc8b3b9a1e18e3b_9.0.30729.9177_none_5093cc7abcb795e9\\msvcp90.dll',
   'BINARY'),
  (u'msvcm90.dll',
   u'C:\\WINDOWS\\WinSxS\\x86_microsoft.vc90.crt_1fc8b3b9a1e18e3b_9.0.30729.9177_none_5093cc7abcb795e9\\msvcm90.dll',
   'BINARY'),
  ('python27.dll', 'C:\\WINDOWS\\system32\\python27.dll', 'BINARY'),
  ('build\\email\\out00-PKG.toc', 'build\\email\\out00-PKG.toc', 'BINARY'),
  ('build\\email\\out00-Analysis.toc',
   'build\\email\\out00-Analysis.toc',
   'BINARY'),
  ('build\\email\\out00-PKG.pkg', 'build\\email\\out00-PKG.pkg', 'BINARY'),
  ('email.py', 'email.py', 'BINARY'),
  ('dist\\email.exe', 'dist\\email.exe', 'BINARY'),
  ('build\\email\\out00-PYZ.pyz', 'build\\email\\out00-PYZ.pyz', 'BINARY'),
  ('build\\email\\out00-PYZ.toc', 'build\\email\\out00-PYZ.toc', 'BINARY'),
  ('build\\email\\email.exe.manifest',
   'build\\email\\email.exe.manifest',
   'BINARY'),
  ('email.spec', 'email.spec', 'BINARY'),
  ('email.pyc', 'email.pyc', 'BINARY'),
  ('build\\email\\warnemail.txt', 'build\\email\\warnemail.txt', 'BINARY'),
  ('build\\email\\out00-EXE.toc', 'build\\email\\out00-EXE.toc', 'BINARY'),
  ('local.py', 'local.py', 'BINARY'),
  ('Ftplogger.py', 'Ftplogger.py', 'BINARY'),
  ('unicodedata', 'C:\\Python27\\DLLs\\unicodedata.pyd', 'EXTENSION'),
  ('bz2', 'C:\\Python27\\DLLs\\bz2.pyd', 'EXTENSION'),
  ('win32gui',
   'C:\\Python27\\lib\\site-packages\\win32\\win32gui.pyd',
   'EXTENSION'),
  ('win32console',
   'C:\\Python27\\lib\\site-packages\\win32\\win32console.pyd',
   'EXTENSION'),
  ('win32api',
   'C:\\Python27\\lib\\site-packages\\win32\\win32api.pyd',
   'EXTENSION'),
  ('win32event',
   'C:\\Python27\\lib\\site-packages\\win32\\win32event.pyd',
   'EXTENSION'),
  ('_ssl', 'C:\\Python27\\DLLs\\_ssl.pyd', 'EXTENSION'),
  ('_hashlib', 'C:\\Python27\\DLLs\\_hashlib.pyd', 'EXTENSION'),
  ('_socket', 'C:\\Python27\\DLLs\\_socket.pyd', 'EXTENSION'),
  ('select', 'C:\\Python27\\DLLs\\select.pyd', 'EXTENSION'),
  ('pyHook._cpyHook',
   'C:\\Python27\\lib\\site-packages\\pyHook\\_cpyHook.pyd',
   'EXTENSION'),
  ('_win32sysloader',
   'C:\\Python27\\lib\\site-packages\\win32\\_win32sysloader.pyd',
   'EXTENSION'),
  ('pywintypes27.dll', 'C:\\WINDOWS\\system32\\pywintypes27.dll', 'BINARY'),
  ('email.exe.manifest',
   'C:\\Users\\Alok Jain\\Desktop\\main files\\keyloggerpythonfiles\\build\\email\\email.exe.manifest',
   'BINARY'),
  ('pyi-windows-manifest-filename email.exe.manifest', '', 'OPTION')],
 False,
 False,
 False)
